{
	"ImportPath": "bitbucket.org/jonmort/devoxx-vote-api",
	"GoVersion": "go1.5",
	"Deps": [
		{
			"ImportPath": "github.com/gin-gonic/gin",
			"Comment": "v1.0rc1-143-g704d690",
			"Rev": "704d690ac0e25fcd060ff82f75f913e879e65a3c"
		},
		{
			"ImportPath": "github.com/go-sql-driver/mysql",
			"Comment": "v1.2-118-g3dd7008",
			"Rev": "3dd7008ac1529aca1bcd8a9db75228a71ba23cac"
		},
		{
			"ImportPath": "github.com/gocql/gocql",
			"Comment": "1st_gen_framing-261-g3bc659a",
			"Rev": "3bc659aecb321175a940135ac5f7f599f021e492"
		},
		{
			"ImportPath": "github.com/golang/snappy",
			"Rev": "723cc1e459b8eea2dea4583200fd60757d40097a"
		},
		{
			"ImportPath": "github.com/lib/pq",
			"Comment": "go1.0-cutoff-59-gb269bd0",
			"Rev": "b269bd035a727d6c1081f76e7a239a1b00674c40"
		},
		{
			"ImportPath": "github.com/manucorporat/sse",
			"Rev": "fe6ea2c8e398672518ef204bf0fbd9af858d0e15"
		},
		{
			"ImportPath": "github.com/mattes/migrate/driver",
			"Comment": "v1.2.0-34-g68a658a",
			"Rev": "68a658aff44841d321573396a3d0d19a745be280"
		},
		{
			"ImportPath": "github.com/mattes/migrate/file",
			"Comment": "v1.2.0-34-g68a658a",
			"Rev": "68a658aff44841d321573396a3d0d19a745be280"
		},
		{
			"ImportPath": "github.com/mattes/migrate/migrate",
			"Comment": "v1.2.0-34-g68a658a",
			"Rev": "68a658aff44841d321573396a3d0d19a745be280"
		},
		{
			"ImportPath": "github.com/mattes/migrate/pipe",
			"Comment": "v1.2.0-34-g68a658a",
			"Rev": "68a658aff44841d321573396a3d0d19a745be280"
		},
		{
			"ImportPath": "github.com/mattn/go-colorable",
			"Rev": "40e4aedc8fabf8c23e040057540867186712faa5"
		},
		{
			"ImportPath": "github.com/mattn/go-sqlite3",
			"Comment": "v1.0.0-9-g897b880",
			"Rev": "897b8800a7d1a93518b87c00e5d1c5d7476f3701"
		},
		{
			"ImportPath": "golang.org/x/net/context",
			"Rev": "db8e4de5b2d6653f66aea53094624468caad15d2"
		},
		{
			"ImportPath": "gopkg.in/bluesuncorp/validator.v5",
			"Comment": "v5.11",
			"Rev": "98121ac23ff3d764f525d18d8de944d150e3c0fe"
		},
		{
			"ImportPath": "gopkg.in/inf.v0",
			"Rev": "c85f1217d51339c0fa3a498cc8b2075de695dae6"
		},
		{
			"ImportPath": "menteslibres.net/gosexy/rest",
			"Comment": "v0.1-42-ge03b404",
			"Rev": "e03b404b3b20a254e6e3a2531c22673868e801bf"
		}
	]
}
